Initial Models
…
full_model <- lm(Attend ~ . -Group -recordID, data=mice_complete)
tidy(full_model)

## # A tibble: 72 x 5
##    term        estimate std.error statistic p.value
##    <chr>          <dbl>     <dbl>     <dbl>   <dbl>
<<<<<<< HEAD
##  1 (Intercept)   262.       925.      0.284   0.777
##  2 month10       -15.0       33.4    -0.451   0.652
##  3 month11         8.64      34.4     0.252   0.802
##  4 month12        -6.48      37.8    -0.171   0.864
##  5 month2        -47.9       31.5    -1.52    0.129
##  6 month3         21.9       34.7     0.631   0.529
##  7 month4        -48.0       35.1    -1.37    0.172
##  8 month5          3.96      34.2     0.116   0.908
##  9 month6          5.24      34.5     0.152   0.879
## 10 month7         -7.84      36.5    -0.215   0.830
## #  with 62 more rows
…
model_int <- lm(Attend ~ (Capacity + FBFansNC.lt1000 + Touring.Local + Day + Returning.Act + logPSAvgTix + logPSAvgGross + logFBLikes + logTwitter + logSPFollowers + logSPMonthListen)*Capacity, data = mice_complete)
>>>>>>> be88779378d42246064324e60afe74cd7b5c49ea
tidy(model_int)

## # A tibble: 30 x 5
##    term                     estimate std.error statistic p.value
##    <chr>                       <dbl>     <dbl>     <dbl>   <dbl>
<<<<<<< HEAD
##  1 (Intercept)                147.      664.       0.222   0.825
##  2 Capacity                    -1.27      1.53    -0.832   0.406
##  3 FBFansNC.lt10001          -139.      265.      -0.523   0.601
##  4 SPMostPlays.lt10001        639.     2059.       0.311   0.756
##  5 Touring.LocalTouring Act   -78.1     290.      -0.270   0.788
##  6 DayMon                    -619.     1035.      -0.599   0.550
##  7 DaySat                    -117.      177.      -0.664   0.507
##  8 DaySun                     -53.4     152.      -0.351   0.726
##  9 DayThu                    -104.      140.      -0.745   0.457
## 10 DayTue                     -28.2     185.      -0.152   0.879
## #  with 20 more rows
…
